<?xml version="1.0" encoding="UTF-8"?>
<svg width="32px" height="32px" viewBox="0 0 32 32" version="1.1" xmlns="http://www.w3.org/2000/svg" xmlns:xlink="http://www.w3.org/1999/xlink">
    <g id="Icon-/-Type-/-Nursing-/-Nursing_Black" stroke="none" stroke-width="1" fill="none" fill-rule="evenodd">
        <path d="M15.9997488,0.645109026 L30.4012238,13.8057838 C30.8065333,14.1761727 31,14.6640591 31,15.1470807 C31,15.6301022 30.8065333,16.1179887 30.4012238,16.4883776 C30.0622035,16.7981887 29.6280332,16.9710296 29.1832253,16.9966468 C28.7137728,17.0236833 28.2373128,16.8856536 27.8572366,16.593296 L27.8572366,16.593296 L16.0002775,5.76746222 L4.26789049,16.4883776 C3.92887012,16.7981887 3.49469987,16.9710296 3.04989192,16.9966468 C2.60409144,17.0223212 2.15197173,16.899143 1.78207102,16.6363081 C1.28057342,16.1972861 1.08055211,15.7678916 1.02435899,15.3617021 C0.952274101,14.8406398 1.10936929,14.3280997 1.48288097,13.9211177 L1.48288097,13.9211177 L15.9997488,0.645109026 Z" id="Rectangle-Copy" stroke="#000000" stroke-width="2" stroke-linejoin="round" fill-rule="nonzero"></path>
        <polyline id="Path-14" stroke="#000000" stroke-width="2" points="4 16 4 31 28 31 28 16"></polyline>
        <path d="M17,14 C17.5522847,14 18,14.4477153 18,15 L17.999,18 L21,18 C21.5522847,18 22,18.4477153 22,19 L22,21 C22,21.5522847 21.5522847,22 21,22 L17.999,22 L18,25 C18,25.5522847 17.5522847,26 17,26 L15,26 C14.4477153,26 14,25.5522847 14,25 L13.999,22 L11,22 C10.4477153,22 10,21.5522847 10,21 L10,19 C10,18.4477153 10.4477153,18 11,18 L13.999,18 L14,15 C14,14.4477153 14.4477153,14 15,14 L17,14 Z" id="Combined-Shape" stroke="#000000" stroke-width="2" stroke-linejoin="round"></path>
    </g>
</svg>