<?xml version="1.0" encoding="UTF-8"?>
<svg width="32px" height="32px" viewBox="0 0 32 32" version="1.1" xmlns="http://www.w3.org/2000/svg" xmlns:xlink="http://www.w3.org/1999/xlink">
    <g id="Icon-/-Type-/-Room-/-Room_Black" stroke="none" stroke-width="1" fill="none" fill-rule="evenodd" stroke-linejoin="round">
        <polygon id="Path-15-Copy" stroke="#000000" stroke-width="2" points="31 31 1 31 7 20 25 20"></polygon>
        <polygon id="Path-3-Copy" stroke="#000000" stroke-width="2" points="1 1 1 31 31 31 31 1"></polygon>
    </g>
</svg>