{
  "$schema": "./node_modules/nx/schemas/workspace-schema.json",
  "version": 2,
  "projects": {
    "e2e": "e2e",
    "backend": "services/backend",
    "backend-attestation": "services/backend-attestation",
    "backend-id": "services/backend-id",
    "contact-form": "services/contact-form",
    "health-department": "services/health-department",
    "locations": "services/locations",
    "register-badge": "services/register-badge",
    "scanner": "services/scanner",
    "webapp": "services/webapp",
    "no-cache": "packages/no-cache"
  }
}
