<?xml version="1.0" encoding="UTF-8"?>
<svg width="32px" height="32px" viewBox="0 0 32 32" version="1.1" xmlns="http://www.w3.org/2000/svg" xmlns:xlink="http://www.w3.org/1999/xlink">
    <g id="Button-/-Round-/-Contact" stroke="none" stroke-width="1" fill="none" fill-rule="evenodd">
        <circle id="Oval" stroke="#000000" stroke-width="2" cx="16" cy="16" r="15"></circle>
        <g id="Group" transform="translate(9.000000, 11.000000)" stroke="#000000" stroke-linejoin="round" stroke-width="2">
            <rect id="Rectangle" x="0" y="0" width="14" height="10"></rect>
            <polyline id="Path-14" points="0 0 7 6 14 -6.66133815e-16"></polyline>
        </g>
    </g>
</svg>