<?xml version="1.0" encoding="UTF-8"?>
<svg width="16px" height="16px" viewBox="0 0 16 16" version="1.1" xmlns="http://www.w3.org/2000/svg" xmlns:xlink="http://www.w3.org/1999/xlink">
    <g id="Icon-/-16-px-/-Keycard" stroke="none" stroke-width="1" fill="none" fill-rule="evenodd">
        <path d="M15,3 C15.5522847,3 16,3.44771525 16,4 L16,4 L16,12 C16,12.5522847 15.5522847,13 15,13 L15,13 L1,13 C0.44771525,13 0,12.5522847 0,12 L0,12 L0,4 C0,3.44771525 0.44771525,3 1,3 L1,3 Z M4,6 C2.8954305,6 2,6.8954305 2,8 C2,9.1045695 2.8954305,10 4,10 C5.1045695,10 6,9.1045695 6,8 C6,6.8954305 5.1045695,6 4,6 Z" id="Combined-Shape" fill="#000000" fill-rule="nonzero"></path>
    </g>
</svg>