<?xml version="1.0" encoding="UTF-8"?>
<svg width="32px" height="32px" viewBox="0 0 32 32" version="1.1" xmlns="http://www.w3.org/2000/svg" xmlns:xlink="http://www.w3.org/1999/xlink">
    <g id="Button-/-Round-/-Search" stroke="none" stroke-width="1" fill="none" fill-rule="evenodd">
        <circle id="Oval" stroke="#000000" stroke-width="2" cx="16" cy="16" r="15"></circle>
        <g id="Group-4" transform="translate(10.000000, 10.000000)" stroke="#000000" stroke-width="2">
            <g id="Group-3">
                <circle id="Oval" cx="4.61538462" cy="4.61538462" r="3.61538462"></circle>
                <line x1="12" y1="12" x2="7.38461538" y2="7.38461538" id="Path-10" stroke-linecap="round"></line>
            </g>
        </g>
    </g>
</svg>