<?xml version="1.0" encoding="UTF-8"?>
<svg width="301px" height="400px" viewBox="0 0 301 400" version="1.1" xmlns="http://www.w3.org/2000/svg" xmlns:xlink="http://www.w3.org/1999/xlink">
    <title>Illustration / Woman / OpenArms</title>
    <defs>
        <polygon id="path-1" points="-1.97295949e-15 0 124.189016 0 124.189016 100.331708 -1.97295949e-15 100.331708"></polygon>
        <polygon id="path-3" points="0 0 34.0045161 0 34.0045161 35.5800433 0 35.5800433"></polygon>
    </defs>
    <g id="Illustration-/-Woman-/-OpenArms" stroke="none" stroke-width="1" fill="none" fill-rule="evenodd">
        <line x1="210.940198" y1="96.8862241" x2="205.059639" y2="100.415883" id="Stroke-1" stroke="#F3F5F7" stroke-width="3.56675358" stroke-linecap="round" stroke-linejoin="round"></line>
        <path d="M215.719673,102.000913 C212.718208,100.413351 212.092442,100.415848 210.268659,96.8861885 C211.137382,90.9643075 213.564455,74.4801992 201.738762,61.5318137 C189.913426,48.5830715 167.668051,62.2961689 171.116543,50.6731891 C172.68845,47.6253981 173.882542,44.0244037 174.603208,40.2525618 C176.450181,30.5859463 174.552547,12.9790239 156.437799,6.92945318 C123.358895,-4.11713932 117.963536,28.7487115 124.158049,40.8068353 L146.595006,64.7097911 C157.579091,57.1682473 165.787542,56.1449457 165.787542,56.1449457 C169.949921,64.7097911 160.849913,75.9154608 172.619237,90.3444057 C177.670318,96.53736 200.964582,94.5909825 205.871529,99.9286293 C207.445577,102.570167 205.077727,107.63995 205.084148,112.352702 C205.093067,118.71579 206.465543,121.56206 211.487368,124.018126 C216.509551,126.474193 224.904947,122.136307 224.904947,115.088759 C224.904947,106.897709 221.157487,104.8775 215.719673,102.000913" id="Fill-2" fill="#2B2A26"></path>
        <path d="M156.441153,79.9696469 C156.441153,79.9696469 201.540543,89.2399961 212.006604,90.6863147 C222.473379,92.1322766 263.520632,85.6571922 265.008342,85.5680233 C266.495696,85.4788545 277.187946,69.4751879 278.713474,71.34167 C280.238645,73.2081522 272.819357,79.2445259 274.911071,81.0332528 C277.002428,82.8219798 300.67415,80.3901672 300.266367,82.1072023 C299.503604,85.3197773 285.837359,84.146672 285.763866,85.7135469 C285.690729,87.2804217 300.140072,85.6304415 300.96634,88.2855329 C301.792608,90.9399109 287.138482,88.5812168 286.485958,89.7086676 C285.833078,90.836475 299.97382,93.7533661 298.380507,96.0913731 C297.515352,97.3611374 285.869111,93.1958825 285.82737,94.9896029 C285.784915,96.7829666 294.19815,101.336998 293.059355,102.704134 C291.920561,104.071628 286.522348,97.9503651 281.513366,97.6001099 C276.504384,97.2502113 273.060531,94.4360428 264.936989,96.1858921 C256.813091,97.9357414 231.345057,103.766313 214.29668,105.302871 C196.863709,106.874026 155.184626,100.372191 155.184626,100.372191 L156.441153,79.9696469 Z" id="Fill-4" fill="#BC9084"></path>
        <path d="M170.309326,55.5573231 C173.966525,56.8613282 185.669491,51.2647352 195.805901,53.5085798 C205.059317,55.5573231 212.65663,61.5316353 213.617756,70.820175 C214.15219,75.9866175 217.496149,80.3790746 219.764818,81.2864567" id="Stroke-6" stroke="#2B2A26" stroke-width="1.42670143"></path>
        <g id="Group-10" transform="translate(0.000000, -0.000000)">
            <mask id="mask-2" fill="white">
                <use xlink:href="#path-1"></use>
            </mask>
            <g id="Clip-9"></g>
            <path d="M124.189016,83.1064284 C124.189016,83.1064284 82.2851705,64.0321436 72.9760986,59.0361918 C63.6670267,54.0395268 34.3163181,24.6295035 33.1668209,23.6811037 C32.0173238,22.7330606 32.8093423,3.50397871 30.476812,4.1135369 C28.1446385,4.72309509 30.581701,13.9706171 27.8378205,14.1839089 C25.0935833,14.3975575 7.40017465,-1.51052014 6.717683,0.116632842 C5.44082068,3.16192705 17.1744683,10.2636901 16.3103832,11.5730453 C15.4459413,12.8824006 4.74298813,3.0381607 2.51106563,4.69634443 C0.279143121,6.35488485 13.5094203,13.0807121 13.3724225,14.3758003 C13.2354247,15.6716019 0.0907711445,9.69942968 -1.97295949e-15,12.5271519 C-0.0490807772,14.0626393 11.8158564,17.5569878 10.792654,19.0307704 C9.76980849,20.5049096 0.288419014,19.2290819 0.402583848,21.0046118 C0.516748682,22.7804984 8.48581087,21.0138854 12.7395212,23.6814604 C16.9932316,26.3486787 21.4342436,26.1036427 26.9669569,32.3026604 C32.500027,38.5016782 49.6422336,58.2140551 62.5118213,69.4978368 C75.6718157,81.0355712 113.180672,100.331708 113.180672,100.331708 L124.189016,83.1064284 Z" id="Fill-8" fill="#BC9084" mask="url(#mask-2)"></path>
        </g>
        <line x1="13.9180591" y1="345.359368" x2="245.918059" y2="345.359368" id="Stroke-11" stroke="#878787" stroke-width="2.85"></line>
        <path d="M120.851621,46.0990416 C121.663975,47.9459066 123.820264,48.7848071 125.667593,47.9723006 C127.514923,47.1601508 128.354035,45.0044049 127.541324,43.1575399 C126.72897,41.3106749 124.572681,40.4721312 122.725352,41.284281 C120.878022,42.0964307 120.039267,44.2521766 120.851621,46.0990416" id="Fill-13" fill="#F16704"></path>
        <path d="M120.851621,46.0990416 C121.663975,47.9459066 123.820264,48.7848071 125.667593,47.9723006 C127.514923,47.1601508 128.354035,45.0044049 127.541324,43.1575399 C126.72897,41.3106749 124.572681,40.4721312 122.725352,41.284281 C120.878022,42.0964307 120.039267,44.2521766 120.851621,46.0990416 Z" id="Stroke-15" stroke="#F16704" stroke-width="0.5"></path>
        <path d="M112.696042,82.2032907 C102.351281,105.605474 110.943255,146.784001 120.367562,148.563098 C140.449157,152.362404 126.647342,137.627788 126.647342,137.627788 L135.487268,135.217732 L129.289544,128.96878 C129.289544,128.96878 132.027716,98.8753669 131.264596,88.0805872 C130.485421,77.043625 117.967603,70.2860536 112.696042,82.2032907" id="Fill-17" fill="#BC9084"></path>
        <path d="M107.837187,154.906961 C107.837187,154.907318 95.8131325,194.146957 109.909992,266.270995 C112.907176,281.605538 111.951402,283.881484 113.641755,296.944719 C118.88977,337.499064 119.031762,369.483213 120.275446,370.726583 C123.107804,373.558229 128.065768,373.238291 131.067233,372.238174 C132.310916,371.823717 139.821179,310.754475 138.577496,300.39163 C136.771907,285.35063 131.566704,282.178359 131.470021,271.659646 C131.331596,256.599029 142.110184,235.707127 139.347751,218.740793 C136.445467,200.917012 111.137621,146.265431 107.837187,154.906961" id="Fill-19" fill="#BC9084"></path>
        <path d="M151.381938,155.597806 C151.381938,155.597806 163.563683,180.882879 164.716034,192.488738 C165.820579,203.616652 166.636144,270.001427 166.636144,270.001427 C166.636144,270.001427 175.470361,292.384945 178.158943,303.161891 C180.847525,313.939194 178.169646,370.577814 178.169646,370.577814 L170.175253,371.141004 L132.068102,216.115627 L111.3058,155.597806 L151.381938,155.597806 Z" id="Fill-21" fill="#BC9084"></path>
        <path d="M138.577424,222.411946 C135.463578,207.603498 122.753108,187.57368 122.753108,187.57368" id="Fill-23" fill="#8399AF"></path>
        <path d="M159.006722,145.057621 C160.730611,150.373867 177.78648,173.160072 180.689835,179.574879 C198.647963,219.251089 170.779614,251.555176 177.400817,298.423031 C145.407906,311.024728 131.617508,307.169068 108.573693,303.454294 C93.8111095,211.836878 100.20541,194.749275 104.927197,167.403332 C105.119493,166.65146 107.748852,153.586442 107.839827,152.771439 C115.505996,153.575742 143.060392,153.615333 159.006722,145.057621 Z" id="Fill-25" fill="#C3CED9"></path>
        <path d="M118.008703,77.9185853 C118.084694,73.6595248 125.400162,73.7554705 132.898651,72.2795479 C140.841313,70.7162398 130.913253,83.3186502 124.882496,87.7335778 C118.851739,92.1485054 108.123098,116.675286 108.123098,116.675286 C108.123098,112.057054 117.883122,84.9493699 118.008703,77.9185853" id="Fill-27" fill="#405066"></path>
        <path d="M171.641986,79.5741296 C171.641986,79.5741296 164.636903,82.2527616 162.605126,91.2299236 C160.484514,100.600142 161.935121,96.2005514 161.202326,107.902 C160.497358,119.165094 160.681449,144.355291 164.367546,153.987309 C159.971486,161.854498 106.366815,161.987894 106.377161,160.332564 C106.377161,160.332564 110.229868,139.782713 104.520199,121.03443 C102.945795,115.864064 101.585092,105.57826 107.450668,100.505623 C113.316243,95.4326294 131.428494,72.8921735 131.428494,72.8921735 C131.428494,72.8921735 163.555192,71.1087967 171.641986,79.5741296" id="Fill-29" fill="#405066"></path>
        <path d="M158.978965,98.6510895 C158.636828,104.314381 158.781318,105.733235 159.870878,112.057089" id="Fill-31" fill="#547896"></path>
        <path d="M161.10632,42.8037893 C160.790583,44.7590836 159.462347,46.1708047 158.140175,45.9575128 C156.818717,45.7435076 156.003152,43.9858115 156.319246,42.0301605 C156.634983,40.0748662 156.411291,33.1507274 160.33214,34.8356618 C162.818436,35.9039045 161.422771,40.8481383 161.10632,42.8037893" id="Fill-33" fill="#BC9084"></path>
        <path d="M155.375067,49.8822615 C156.259488,51.8931971 158.607002,52.806286 160.618444,51.9217312 C162.629886,51.0375329 163.543204,48.6906091 162.658427,46.6796734 C161.774006,44.6690944 159.426492,43.7560055 157.41505,44.6402037 C155.403965,45.5244019 154.490646,47.8713258 155.375067,49.8822615" id="Fill-35" fill="#F16704"></path>
        <path d="M155.375067,49.8822615 C156.259488,51.8931971 158.607002,52.806286 160.618444,51.9217312 C162.629886,51.0375329 163.543204,48.6906091 162.658427,46.6796734 C161.774006,44.6690944 159.426492,43.7560055 157.41505,44.6402037 C155.403965,45.5244019 154.490646,47.8713258 155.375067,49.8822615 Z" id="Stroke-37" stroke="#F16704" stroke-width="0.5"></path>
        <path d="M132.07431,366.492847 C132.07431,366.492847 133.959813,369.37621 134.166737,371.489869 C134.65943,376.515068 134.321573,399.557723 134.515297,399.639401 L130.675791,399.639401 L130.763912,387.584487 C130.763912,387.584487 122.398483,399.639401 118.530793,399.639401 L100.504522,399.639401 C100.504522,399.639401 99.8220307,396.000243 103.917337,395.090364 C106.012976,394.624546 109.723333,393.215321 112.846454,388.944134 C115.825443,384.870188 119.892922,380.145666 119.892922,369.198586 L132.07431,366.492847 Z" id="Fill-39" fill="#405066"></path>
        <g id="Group-43" transform="translate(148.815991, 364.419957)">
            <mask id="mask-4" fill="white">
                <use xlink:href="#path-3"></use>
            </mask>
            <g id="Clip-42"></g>
            <path d="M28.9020615,0 C28.9020615,0 31.0133974,2.722503 31.3901414,4.81226393 C32.2856218,9.78182168 33.8047276,32.776682 34.0045161,32.8426669 L30.17714,33.1515478 L29.2945032,21.1283782 C29.2945032,21.1283782 21.9269469,33.8178174 18.0717432,34.1291949 C14.2165395,34.4405725 0.10398213,35.5801503 0.10398213,35.5801503 C0.10398213,35.5801503 -0.869273081,32.0073332 3.13933966,30.7710965 C5.19109578,30.1383544 8.77551481,28.4345162 11.5443688,23.9261397 C14.1858577,19.6253482 15.9318661,12.6812357 18.5301864,0.83747374 L28.9020615,0 Z" id="Fill-41" fill="#405066" mask="url(#mask-4)"></path>
        </g>
        <path d="M112.846312,388.944241 C115.825657,384.869938 119.952716,377.890872 119.952716,366.943792 L132.274312,364.739538 C132.274312,364.739538 127.451205,387.285344 117.250577,388.575082 C113.980468,388.988469 112.846312,388.944241 112.846312,388.944241" id="Fill-44" fill="#BC9084"></path>
        <path d="M104.521162,160.061526 C104.521162,160.061526 141.78064,166.299779 166.454158,153.581805" id="Stroke-46" stroke="#9BADBF" stroke-width="3" stroke-linecap="round"></path>
        <path d="M178.452632,363.953675 L167.742187,361.243299 C166.945174,369.066973 163.663291,380.761288 160.625793,387.996091 C160.625793,387.996091 159.67323,391.215799 167.430374,388.289635 C175.979893,385.064219 178.452632,363.953675 178.452632,363.953675" id="Fill-48" fill="#BC9084"></path>
        <path d="M152.232216,55.6880803 C152.232216,55.6880803 150.91611,61.9794769 151.333525,65.9218096 C151.625359,68.6781968 151.282508,73.1359254 151.683155,74.2237853 C152.002103,75.089793 144.573896,79.8246584 141.415812,80.342551 C132.002208,81.887312 131.10637,74.3985562 131.10637,74.3985562 C131.10637,74.3985562 133.97833,70.478694 133.962632,65.4820289 C133.946221,60.273142 130.670047,56.8893629 136.973016,57.6002169 C143.277055,58.3121409 152.5979,52.1776814 152.232216,55.6880803" id="Fill-50" fill="#BC9084"></path>
        <path d="M133.489526,61.7093667 C134.041798,64.2592388 134.015397,63.4642094 133.962596,65.4822786 C135.671501,66.4731227 137.462462,67.6448013 139.456422,67.4928576 C142.981975,67.2235677 148.376263,62.5964183 151.690254,58.8648807 C151.854723,57.7028324 152.018121,56.8403913 152.242527,55.5574301 C145.131128,60.0394126 141.399722,61.3444878 133.489526,61.7093667" id="Fill-52" fill="#A8847D"></path>
        <path d="M127.193014,27.1850467 C127.193014,27.1850467 121.438393,34.472281 125.878691,51.6415627 C126.957549,55.8125243 132.630471,63.899068 139.504978,63.3754686 C146.380198,62.8504425 155.840182,54.3244747 157.366423,45.6879376 C158.822025,37.4590804 152.600041,36.3034523 144.947073,31.6952066 C138.823556,28.0075401 133.169186,23.3144058 133.169186,23.3144058 C133.169186,23.3144058 129.336816,28.9495197 127.193014,27.1850467" id="Fill-54" fill="#BC9084"></path>
        <path d="M137.402632,80.5525258 C137.402632,80.5525258 132.955199,92.0610129 129.613023,97.947583" id="Stroke-56" stroke="#FFFFFF" stroke-width="2" stroke-linecap="round"></path>
        <path d="M102.332765,141.981653 C102.202903,141.650658 102.171864,141.277575 102.266764,140.904493" id="Fill-58" fill="#F16704"></path>
        <line x1="171.287718" y1="53.5087225" x2="165.787471" y2="57.6058523" id="Stroke-60" stroke="#F3F5F7" stroke-width="3.56675358" stroke-linecap="round" stroke-linejoin="round"></line>
        <path d="M25.3682925,37.894367 C26.7814391,38.2043179 28.4428942,37.6104534 29.2102959,37.3361701 C29.9684218,37.0650968 30.3194786,36.6948678 30.2816615,35.9301558 C30.2734559,35.7593083 27.4457357,34.1681796 27.2259684,34.2302411 C28.2901987,32.3965731 33.5082451,26.9818845 35.1368779,26.0552419 C35.896074,26.1536843 36.4091022,26.4736221 37.1458222,27.4109649 C37.3438268,27.1156377 37.7965617,25.8330331 37.7837182,25.4481804 C37.7195005,23.5082232 36.3662904,22.96679 35.9531564,22.846947 C35.1094069,22.6011977 33.6563027,22.5583967 30.7850571,24.991636 C29.2003065,26.334162 25.8056865,30.3332061 24.7296829,31.9147047 C24.1410205,32.7803557 22.3497029,35.0570146 23.7949584,36.9245667 C24.2173682,37.4706367 24.7707109,37.7634672 25.3682925,37.894367" id="Fill-62" fill="#F16704"></path>
        <path d="M126.058929,73.0172952 C126.058929,73.0172952 100.142798,70.3636305 98.3347126,70.1867195 C96.5262703,70.0101652 96.6268781,100.97244 96.6268781,100.97244 C96.6268781,100.97244 97.9326384,106.943185 109.584944,107.29665 C121.237249,107.650116 126.058929,73.0172952 126.058929,73.0172952" id="Fill-64" fill="#405066"></path>
        <path d="M164.732409,75.3640407 C164.732409,75.3640407 180.587051,82.3794883 182.210689,83.1973449 C183.834683,84.0148448 165.937919,111.517368 165.937919,111.517368 C165.937919,111.517368 155.005922,116.794737 149.309097,114.541975 C138.491265,110.264011 164.732409,75.3640407 164.732409,75.3640407" id="Fill-66" fill="#405066"></path>
    </g>
</svg>