<?xml version="1.0" encoding="UTF-8"?>
<svg width="32px" height="32px" viewBox="0 0 32 32" version="1.1" xmlns="http://www.w3.org/2000/svg" xmlns:xlink="http://www.w3.org/1999/xlink">
    <title>Icon / Hotel / Hotel_Colors</title>
    <g id="Icon-/-Hotel-/-Hotel_Colors" stroke="none" stroke-width="1" fill="none" fill-rule="evenodd">
        <polygon id="Star-Copy" fill="#FF9B7D" points="16 6 13.648859 7.23606798 14.097887 4.61803399 12.1957739 2.76393202 14.8244295 2.38196601 16 0 17.1755705 2.38196601 19.8042261 2.76393202 17.902113 4.61803399 18.351141 7.23606798"></polygon>
        <path d="M28,11 C28.5128358,11 28.9355072,11.3860402 28.9932723,11.8833789 L29,12 L29,16 C29,16.5522847 28.5522847,17 28,17 C27.4871642,17 27.0644928,16.6139598 27.0067277,16.1166211 L27,16 L27,13 L5,13 L5,16 C5,16.5128358 4.61395981,16.9355072 4.11662113,16.9932723 L4,17 C3.48716416,17 3.06449284,16.6139598 3.00672773,16.1166211 L3,16 L3,12 C3,11.4871642 3.38604019,11.0644928 3.88337887,11.0067277 L4,11 L28,11 Z" id="Path-78" fill="#FF0064" fill-rule="nonzero"></path>
        <path d="M14,15 C14.5128358,15 14.9355072,15.3860402 14.9932723,15.8833789 L15,16 L15,20 L13,20 L13,17 L9,17 L9,20 L7,20 L7,16 C7,15.4871642 7.38604019,15.0644928 7.88337887,15.0067277 L8,15 L14,15 Z" id="Path-79" fill="#FF690A" fill-rule="nonzero"></path>
        <path d="M24,15 C24.5128358,15 24.9355072,15.3860402 24.9932723,15.8833789 L25,16 L25,20 L23,20 L23,17 L19,17 L19,20 L17,20 L17,16 C17,15.4871642 17.3860402,15.0644928 17.8833789,15.0067277 L18,15 L24,15 Z" id="Path-79-Copy" fill="#FF690A" fill-rule="nonzero"></path>
        <path d="M27,19 C29.209139,19 31,20.790861 31,23 L31,32 L1,32 L1,23 C1,20.790861 2.790861,19 5,19 L27,19 Z M27,21 L5,21 C3.9456382,21 3.08183488,21.8158778 3.00548574,22.8507377 L3,23 L3,30 L29,30 L29,23 C29,21.9456382 28.1841222,21.0818349 27.1492623,21.0054857 L27,21 Z" id="Rectangle" fill="#C80050" fill-rule="nonzero"></path>
        <path d="M31,26 C31.5522847,26 32,26.4477153 32,27 C32,27.5128358 31.6139598,27.9355072 31.1166211,27.9932723 L31,28 L1,28 C0.44771525,28 0,27.5522847 0,27 C0,26.4871642 0.38604019,26.0644928 0.883378875,26.0067277 L1,26 L31,26 Z" id="Path-19" fill="#FF502D" fill-rule="nonzero"></path>
    </g>
</svg>